{
	"count": 4,
	"next": "https://swapi.co/api/starships/?page=2",
	"previous": null,
	"results": [
        {
			"name": "Death Star",
			"model": "DS-1 Orbital Battle Station",
			"manufacturer": "Imperial Department of Military Research, Sienar Fleet Systems",
			"cost_in_credits": "1000000000000",
			"length": "120000",
			"max_atmosphering_speed": "n/a",
			"crew": "342953",
			"passengers": "843342",
			"cargo_capacity": "1000000000000",
			"consumables": "3 years",
			"hyperdrive_rating": "4.0",
			"MGLT": "10",
			"starship_class": "Deep Space Mobile Battlestation",
			"pilots": [],
			"films": [
				"https://swapi.co/api/films/1/"
			],
			"created": "2014-12-10T16:36:50.509000Z",
			"edited": "2014-12-22T17:35:44.452589Z",
			"url": "https://swapi.co/api/starships/9/"
		},
		{
			"name": "Millennium Falcon",
			"model": "YT-1300 light freighter",
			"manufacturer": "Corellian Engineering Corporation",
			"cost_in_credits": "100000",
			"length": "34.37",
			"max_atmosphering_speed": "1050",
			"crew": "4",
			"passengers": "6",
			"cargo_capacity": "100000",
			"consumables": "2 months",
			"hyperdrive_rating": "0.5",
			"MGLT": "75",
			"starship_class": "Light freighter",
			"pilots": [
				"https://swapi.co/api/people/13/",
				"https://swapi.co/api/people/14/",
				"https://swapi.co/api/people/25/",
				"https://swapi.co/api/people/31/"
			],
			"films": [
				"https://swapi.co/api/films/2/",
				"https://swapi.co/api/films/7/",
				"https://swapi.co/api/films/3/",
				"https://swapi.co/api/films/1/"
			],
			"created": "2014-12-10T16:59:45.094000Z",
			"edited": "2014-12-22T17:35:44.464156Z",
			"url": "https://swapi.co/api/starships/10/"
		}
    ]
}