{
	"count": 37,
	"next": "https://swapi.co/api/species/?page=2",
	"previous": null,
	"results": [
		{
			"name": "Trandoshan",
			"classification": "reptile",
			"designation": "sentient",
			"average_height": "200",
			"skin_colors": "brown, green",
			"hair_colors": "none",
			"eye_colors": "yellow, orange",
			"average_lifespan": "unknown",
			"homeworld": "https://swapi.co/api/planets/29/",
			"language": "Dosh",
			"people": [
				"https://swapi.co/api/people/24/"
			],
			"films": [
				"https://swapi.co/api/films/2/"
			],
			"created": "2014-12-15T13:07:47.704000Z",
			"edited": "2014-12-20T21:36:42.151000Z",
			"url": "https://swapi.co/api/species/7/"
		},
		{
			"name": "Mon Calamari",
			"classification": "amphibian",
			"designation": "sentient",
			"average_height": "160",
			"skin_colors": "red, blue, brown, magenta",
			"hair_colors": "none",
			"eye_colors": "yellow",
			"average_lifespan": "unknown",
			"homeworld": "https://swapi.co/api/planets/31/",
			"language": "Mon Calamarian",
			"people": [
				"https://swapi.co/api/people/27/"
			],
			"films": [
				"https://swapi.co/api/films/3/"
			],
			"created": "2014-12-18T11:09:52.263000Z",
			"edited": "2014-12-20T21:36:42.153000Z",
			"url": "https://swapi.co/api/species/8/"
		}
    ]
}